{
  "architectures": ["amd64", "arm64"],
  "author": "DANBER",
  "languages": [
    "xx"
  ],
  "name": {
    "xx": "Rhasspy-Interface"
  },
  "description_short": {
    "xx": "Interface to allow using Jaco skills with Rhasspy"
  },
  "description_long": {
    "xx": "Interface skill to allow using Jaco skills with Rhasspy.<br><br>Setup:<br>  - Install <i>Jaco-Master</i> and <i>Rhasspy</i><br>  - Choose some skills and install them with <i>Jaco</i><br>  - Configure this skill's config<br>  - Run the skill's <i>preprocess.py</i> script<br>  - Retrain and start <i>Rhasspy</i><br>  - Start the skills with <i>Jaco's compose</i> file<br><br>Note that some skills might not be completely compatible."
  },
  "symbol": "recycling-16.png",
  "color": "#2adcce"
}
